[gd_scene load_steps=4 format=2]

[ext_resource path="res://small.tres" type="ArrayMesh" id=1]
[ext_resource path="res://cach.gd" type="Script" id=2]

[sub_resource type="BoxShape" id=2]

extents = Vector3( 4, 12, 1 )

[node name="Cctus" type="MeshInstance"]

transform = Transform( 0.1, 0, 0, 0, 0.1, 0, 0, 0, 0.14, 0, 0, 0 )
layers = 1
material_override = null
cast_shadow = 1
extra_cull_margin = 0.0
use_in_baked_light = false
lod_min_distance = 0.0
lod_min_hysteresis = 0.0
lod_max_distance = 0.0
lod_max_hysteresis = 0.0
mesh = ExtResource( 1 )
skeleton = NodePath("..")
material/0 = null
script = ExtResource( 2 )
_sections_unfolded = [ "Geometry", "Transform" ]

[node name="Area" type="Area" parent="." index="0"]

input_ray_pickable = false
input_capture_on_drag = false
space_override = 0
gravity_point = false
gravity_distance_scale = 0.0
gravity_vec = Vector3( 0, -1, 0 )
gravity = 9.8
linear_damp = 0.1
angular_damp = 1.0
priority = 0.0
monitoring = true
monitorable = true
collision_layer = 1
collision_mask = 1
audio_bus_override = false
audio_bus_name = "Master"
reverb_bus_enable = false
reverb_bus_name = "Master"
reverb_bus_amount = 0.0
reverb_bus_uniformity = 0.0

[node name="CollisionShape" type="CollisionShape" parent="Area" index="0"]

transform = Transform( 1, 0, 0, 0, 1, 0, 0, 0, 1, 0, 10, 0 )
shape = SubResource( 2 )
disabled = false


