[gd_scene load_steps=4 format=2]

[ext_resource path="res://Floor.gd" type="Script" id=1]

[sub_resource type="CubeMesh" id=1]

custom_aabb = AABB( 0, 0, 0, 0, 0, 0 )
size = Vector3( 10, 1, 2 )
subdivide_width = 0
subdivide_height = 0
subdivide_depth = 0

[sub_resource type="ConcavePolygonShape" id=2]

data = PoolVector3Array( -5, 0.5, 1, 5, 0.5, 1, -5, -0.5, 1, 5, 0.5, 1, 5, -0.5, 1, -5, -0.5, 1, 5, 0.5, -1, -5, 0.5, -1, 5, -0.5, -1, -5, 0.5, -1, -5, -0.5, -1, 5, -0.5, -1, 5, 0.5, 1, 5, 0.5, -1, 5, -0.5, 1, 5, 0.5, -1, 5, -0.5, -1, 5, -0.5, 1, -5, 0.5, -1, -5, 0.5, 1, -5, -0.5, -1, -5, 0.5, 1, -5, -0.5, 1, -5, -0.5, -1, 5, 0.5, 1, -5, 0.5, 1, 5, 0.5, -1, -5, 0.5, 1, -5, 0.5, -1, 5, 0.5, -1, -5, -0.5, 1, 5, -0.5, 1, -5, -0.5, -1, 5, -0.5, 1, 5, -0.5, -1, -5, -0.5, -1 )

[node name="MeshInstance" type="MeshInstance"]

layers = 1
material_override = null
cast_shadow = 1
extra_cull_margin = 0.0
use_in_baked_light = false
lod_min_distance = 0.0
lod_min_hysteresis = 0.0
lod_max_distance = 0.0
lod_max_hysteresis = 0.0
mesh = SubResource( 1 )
skeleton = NodePath("..")
material/0 = null
script = ExtResource( 1 )

[node name="Coll" type="StaticBody" parent="." index="0"]

input_ray_pickable = true
input_capture_on_drag = false
collision_layer = 1
collision_mask = 1
friction = 1.0
bounce = 0.0
constant_linear_velocity = Vector3( 0, 0, 0 )
constant_angular_velocity = Vector3( 0, 0, 0 )

[node name="CollisionShape" type="CollisionShape" parent="Coll" index="0"]

shape = SubResource( 2 )
disabled = false


